multiplexer.vcd
$date
	Thu Oct  6 08:43:06 2016
$end
$version
	Icarus Verilog
$end
$timescale
	1ps
$end
$scope module ALUmultiplexer $end
$var wire 1 ! ANDNAD $end
$var wire 1 " ANDNAND $end
$var wire 1 # ORNOR $end
$var wire 1 $ SLT $end
$var wire 1 % XOR $end
$var wire 1 & addsub $end
$var wire 1 ' bit1 $end
$var wire 1 ( bit2 $end
$var wire 1 ) bit3 $end
$var wire 3 * muxindex [2:0] $end
$var wire 1 + out $end
$var wire 1 , tempout $end
$scope module mux1 $end
$var wire 1 - address0 $end
$var wire 1 . address1 $end
$var wire 1 & in0 $end
$var wire 1 % in1 $end
$var wire 1 $ in2 $end
$var wire 1 ! in3 $end
$var wire 1 / inter0 $end
$var wire 1 0 inter1 $end
$var wire 1 1 inter2 $end
$var wire 1 2 inter3 $end
$var wire 1 3 nadd0 $end
$var wire 1 4 nadd1 $end
$var wire 1 , out $end
$upscope $end
$upscope $end
$scope module behavioralMultiplexer $end
$var wire 2 5 address [1:0] $end
$var wire 1 6 address0 $end
$var wire 1 7 address1 $end
$var wire 1 8 in0 $end
$var wire 1 9 in1 $end
$var wire 1 : in2 $end
$var wire 1 ; in3 $end
$var wire 4 < inputs [3:0] $end
$var wire 1 = out $end
$upscope $end
$scope module testMultiplexer $end
$var wire 1 > out $end
$var reg 1 ? addr0 $end
$var reg 1 @ addr1 $end
$var reg 1 A in0 $end
$var reg 1 B in1 $end
$var reg 1 C in2 $end
$var reg 1 D in3 $end
$scope module multiplexer $end
$var wire 1 E address0 $end
$var wire 1 F address1 $end
$var wire 1 G in0 $end
$var wire 1 H in1 $end
$var wire 1 I in2 $end
$var wire 1 J in3 $end
$var wire 1 K inter0 $end
$var wire 1 L inter1 $end
$var wire 1 M inter2 $end
$var wire 1 N inter3 $end
$var wire 1 O nadd0 $end
$var wire 1 P nadd1 $end
$var wire 1 > out $end
$upscope $end
$upscope $end
$enddefinitions $end
#0
$dumpvars
zP
zO
zN
zM
zL
zK
xJ
xI
xH
0G
0F
0E
xD
xC
xB
0A
0@
0?
z>
x=
bz <
z;
z:
z9
z8
z7
z6
bz 5
x4
x3
x2
x1
x0
x/
z.
z-
z,
x+
bz *
x)
x(
x'
z&
z%
z$
z#
z"
z!
$end
#50000
0N
0M
0L
0K
1O
1P
#100000
0>
#1000000
1A
1G
#1050000
1K
#1100000
1>
#2000000
0B
0H
xA
xG
1?
1E
#2050000
xK
0O
#2100000
x>
0K
#2150000
0>
#3000000
1B
1H
#3050000
1L
#3100000
1>
#4000000
0C
0I
xB
xH
1@
1F
0?
0E
#4050000
0P
1O
0L
#4100000
0>
#5000000
1C
1I
#5050000
1M
#5100000
1>
#6000000
0D
0J
xC
xI
1?
1E
#6050000
xM
0O
#6100000
x>
0M
#6150000
0>
#7000000
1D
1J
#7050000
1N
#7100000
1>
